{
  "data": [
    {
      "runnerPostId": 1,
      "title": "진행중인 리뷰",
      "deadline": "마감기한",
      "tags": ["java", "JAVA"],
      "reviewStatus": "IN_PROGRESS",
      "applicantCount": 4,
      "watchedCount": 125,
      "supporterId": 1
    },
    {
      "runnerPostId": 2,
      "title": "진행중인 리뷰",
      "deadline": "마감기한2",
      "tags": ["java", "자바"],
      "reviewStatus": "IN_PROGRESS",
      "applicantCount": 4,
      "watchedCount": 125
    },
    {
      "runnerPostId": 3,
      "title": "진행중인 리뷰2",
      "deadline": "마감기한3",
      "tags": ["java", "자바"],
      "reviewStatus": "IN_PROGRESS",
      "applicantCount": 4,
      "watchedCount": 125
    },
    {
      "runnerPostId": 4,
      "title": "진행중인 리뷰4",
      "deadline": "마감기한3",
      "tags": ["java", "자바"],
      "reviewStatus": "IN_PROGRESS",
      "applicantCount": 4,
      "watchedCount": 125,
      "supporterId": 2
    }
  ],
  "pageInfo": {
    "isFirst": true,
    "isLast": false,
    "hasNext": true,
    "totalPages": 4,
    "totalElements": 48,
    "currentPage": 1,
    "currentSize": 12
  }
}
