{
  "data": [
    {
      "runnerPostId": 11,
      "title": "글자글자글자글자글자글자글자글자글자글자글자글자글자글자글자",
      "deadline": "2020-10-13T11:30",
      "tags": ["java", "JAVA"],
      "reviewStatus": "NOT_STARTED",
      "applicantCount": 0,
      "watchedCount": 125,
      "supporterId": 1
    },
    {
      "runnerPostId": 22,
      "title": "시작안한 리뷰2",
      "deadline": "마감기한2",
      "tags": ["java", "자바"],
      "reviewStatus": "NOT_STARTED",
      "applicantCount": 4,
      "watchedCount": 125
    },
    {
      "runnerPostId": 34,
      "title": "시작안한 리뷰3",
      "deadline": "마감기한3",
      "tags": ["java", "자바"],
      "reviewStatus": "NOT_STARTED",
      "applicantCount": 4,
      "watchedCount": 125
    },
    {
      "runnerPostId": 45,
      "title": "시작안한 리뷰3",
      "deadline": "마감기한3",
      "tags": ["java", "자바"],
      "reviewStatus": "NOT_STARTED",
      "applicantCount": 4,
      "watchedCount": 125
    },
    {
      "runnerPostId": 56,
      "title": "시작안한 리뷰3",
      "deadline": "마감기한3",
      "tags": ["java", "자바"],
      "reviewStatus": "NOT_STARTED",
      "applicantCount": 4,
      "watchedCount": 125
    },
    {
      "runnerPostId": 67,
      "title": "시작안한 리뷰3",
      "deadline": "마감기한3",
      "tags": ["java", "자바"],
      "reviewStatus": "NOT_STARTED",
      "applicantCount": 4,
      "watchedCount": 125
    },
    {
      "runnerPostId": 488,
      "title": "테스트 리뷰1",
      "deadline": "2023-10-01T12:00",
      "tags": ["java", "JAVA"],
      "reviewStatus": "NOT_STARTED",
      "applicantCount": 2,
      "watchedCount": 50
    },
    {
      "runnerPostId": 568,
      "title": "테스트 리뷰2",
      "deadline": "2023-10-02T13:00",
      "tags": ["java", "자바"],
      "reviewStatus": "NOT_STARTED",
      "applicantCount": 3,
      "watchedCount": 60
    },
    {
      "runnerPostId": 6,
      "title": "테스트 리뷰3",
      "deadline": "2023-10-03T14:00",
      "tags": ["java", "자바"],
      "reviewStatus": "NOT_STARTED",
      "applicantCount": 5,
      "watchedCount": 70
    },
    {
      "runnerPostId": 7,
      "title": "테스트 리뷰4",
      "deadline": "2023-10-04T15:00",
      "tags": ["java", "JAVA"],
      "reviewStatus": "NOT_STARTED",
      "applicantCount": 6,
      "watchedCount": 80
    }
  ],
  "pageInfo": {
    "isFirst": true,
    "isLast": false,
    "hasNext": true,
    "totalPages": 4,
    "totalElements": 40,
    "currentPage": 1,
    "currentSize": 12
  }
}
