{
  "data": [
    {
      "runnerPostId": 1,
      "title": "글자글자글자글자글자글자글자글자글자글자글자글자글자글자글자",
      "deadline": "2020-10=13T11:30",
      "tags": ["java", "JAVA"],
      "reviewStatus": "NOT_STARTED",
      "applicantCount": 4,
      "watchedCount": 125,
      "supporterId": 1
    },
    {
      "runnerPostId": 2,
      "title": "시작안한 리뷰2",
      "deadline": "마감기한2",
      "tags": ["java", "자바"],
      "reviewStatus": "NOT_STARTED",
      "applicantCount": 4,
      "watchedCount": 125
    },
    {
      "runnerPostId": 3,
      "title": "시작안한 리뷰3",
      "deadline": "마감기한3",
      "tags": ["java", "자바"],
      "reviewStatus": "NOT_STARTED",
      "applicantCount": 4,
      "watchedCount": 125
    }
  ],
  "pageInfo": {
    "isFirst": true,
    "isLast": false,
    "hasNext": true,
    "totalPages": 4,
    "totalElements": 48,
    "currentPage": 1,
    "currentSize": 12
  }
}
